$date
	Tue Nov 20 18:09:49 2018
$end
$version
	Icarus Verilog
$end
$timescale
	100ps
$end
$scope module BUF $end
$var wire 1 ! A $end
$var wire 1 " Y $end
$upscope $end
$scope module DFFSR $end
$var wire 1 # C $end
$var wire 1 $ D $end
$var wire 1 % R $end
$var wire 1 & S $end
$var reg 1 ' Q $end
$upscope $end
$scope module fsm_testbench $end
$var wire 1 ( active $end
$var wire 1 ) umbrales_vc_fc_low_high_est $end
$var wire 1 * umbrales_vc_fc_low_high_cond $end
$var wire 1 + umbrales_vc_fc_low_est $end
$var wire 1 , umbrales_vc_fc_low_cond $end
$var wire 3 - umbral_vc_fc_low [2:0] $end
$var wire 3 . umbral_vc_fc_high [2:0] $end
$var wire 1 / reset_L $end
$var wire 4 0 not_empty [3:0] $end
$var wire 1 1 init $end
$var wire 1 2 idle_est $end
$var wire 1 3 idle_cond $end
$var wire 4 4 fifo_error [3:0] $end
$var wire 1 5 error_est $end
$var wire 1 6 error_cond $end
$var wire 1 7 clk $end
$scope module FSM_cond $end
$var wire 3 8 umbral_vc_fc_low [2:0] $end
$var wire 3 9 umbral_vc_fc_high [2:0] $end
$var wire 1 / reset_L $end
$var wire 4 : not_empty [3:0] $end
$var wire 1 1 init $end
$var wire 4 ; fifo_error [3:0] $end
$var wire 1 7 clk $end
$var reg 1 < active $end
$var reg 1 6 error $end
$var reg 1 3 idle $end
$var reg 5 = state [4:0] $end
$var reg 3 > umbrales_vc_fc_high [2:0] $end
$var reg 3 ? umbrales_vc_fc_low [2:0] $end
$upscope $end
$scope module FSM_prob $end
$var reg 1 7 clk $end
$var reg 4 @ fifo_error [3:0] $end
$var reg 1 1 init $end
$var reg 4 A not_empty [3:0] $end
$var reg 1 / reset_L $end
$var reg 3 B umbral_vc_fc_high [2:0] $end
$var reg 3 C umbral_vc_fc_low [2:0] $end
$upscope $end
$scope module FSM_synth $end
$var wire 1 ( active $end
$var wire 1 7 clk $end
$var wire 4 D fifo_error [3:0] $end
$var wire 1 1 init $end
$var wire 4 E not_empty [3:0] $end
$var wire 1 / reset_L $end
$var wire 3 F umbral_vc_fc_high [2:0] $end
$var wire 3 G umbral_vc_fc_low [2:0] $end
$var wire 3 H umbrales_vc_fc_low [2:0] $end
$var wire 3 I umbrales_vc_fc_high [2:0] $end
$var wire 5 J state [4:0] $end
$var wire 1 2 idle $end
$var wire 1 5 error $end
$var wire 1 K _082_ $end
$var wire 1 L _081_ $end
$var wire 1 M _080_ $end
$var wire 1 N _079_ $end
$var wire 1 O _078_ $end
$var wire 1 P _077_ $end
$var wire 1 Q _076_ $end
$var wire 1 R _075_ $end
$var wire 1 S _074_ $end
$var wire 1 T _073_ $end
$var wire 1 U _072_ $end
$var wire 1 V _071_ $end
$var wire 1 W _070_ $end
$var wire 1 X _069_ $end
$var wire 1 Y _068_ $end
$var wire 1 Z _067_ $end
$var wire 1 [ _066_ $end
$var wire 1 \ _065_ $end
$var wire 1 ] _064_ $end
$var wire 1 ^ _063_ $end
$var wire 1 _ _062_ $end
$var wire 1 ` _061_ $end
$var wire 1 a _060_ $end
$var wire 1 b _059_ $end
$var wire 1 c _058_ $end
$var wire 1 d _057_ $end
$var wire 1 e _056_ $end
$var wire 1 f _055_ $end
$var wire 1 g _054_ $end
$var wire 1 h _053_ $end
$var wire 1 i _052_ $end
$var wire 1 j _051_ $end
$var wire 1 k _050_ $end
$var wire 1 l _049_ $end
$var wire 1 m _048_ $end
$var wire 1 n _047_ $end
$var wire 1 o _046_ $end
$var wire 1 p _045_ $end
$var wire 1 q _044_ $end
$var wire 1 r _043_ $end
$var wire 1 s _042_ $end
$var wire 1 t _041_ $end
$var wire 1 u _040_ $end
$var wire 1 v _039_ $end
$var wire 1 w _038_ $end
$var wire 1 x _037_ $end
$var wire 1 y _036_ $end
$var wire 1 z _035_ $end
$var wire 1 { _034_ $end
$var wire 1 | _033_ $end
$var wire 1 } _032_ $end
$var wire 1 ~ _031_ $end
$var wire 1 !" _030_ $end
$var wire 1 "" _029_ $end
$var wire 1 #" _028_ $end
$var wire 1 $" _027_ $end
$var wire 1 %" _026_ $end
$var wire 1 &" _025_ $end
$var wire 1 '" _024_ $end
$var wire 1 (" _023_ $end
$var wire 1 )" _022_ $end
$var wire 1 *" _021_ $end
$var wire 1 +" _020_ $end
$var wire 1 ," _019_ $end
$var wire 1 -" _018_ $end
$var wire 1 ." _017_ $end
$var wire 1 /" _016_ $end
$var wire 1 0" _015_ $end
$var wire 1 1" _014_ $end
$var wire 1 2" _013_ $end
$var wire 1 3" _012_ $end
$var wire 1 4" _011_ $end
$var wire 1 5" _010_ $end
$var wire 1 6" _009_ $end
$var wire 1 7" _008_ $end
$var wire 1 8" _007_ $end
$var wire 1 9" _006_ $end
$var wire 3 :" _005_ [2:0] $end
$var wire 3 ;" _004_ [2:0] $end
$var wire 5 <" _003_ [4:0] $end
$var wire 1 =" _002_ $end
$var wire 1 >" _001_ $end
$var wire 1 ?" _000_ $end
$scope module _083_ $end
$var wire 1 @" A $end
$var wire 1 { Y $end
$upscope $end
$scope module _084_ $end
$var wire 1 A" A $end
$var wire 1 z Y $end
$upscope $end
$scope module _085_ $end
$var wire 1 B" A $end
$var wire 1 y Y $end
$upscope $end
$scope module _086_ $end
$var wire 1 C" A $end
$var wire 1 x Y $end
$upscope $end
$scope module _087_ $end
$var wire 1 D" A $end
$var wire 1 w Y $end
$upscope $end
$scope module _088_ $end
$var wire 1 1 A $end
$var wire 1 v Y $end
$upscope $end
$scope module _089_ $end
$var wire 1 / A $end
$var wire 1 u Y $end
$upscope $end
$scope module _090_ $end
$var wire 1 E" A $end
$var wire 1 F" B $end
$var wire 1 t Y $end
$upscope $end
$scope module _091_ $end
$var wire 1 t A $end
$var wire 1 s Y $end
$upscope $end
$scope module _092_ $end
$var wire 1 G" A $end
$var wire 1 s B $end
$var wire 1 r Y $end
$upscope $end
$scope module _093_ $end
$var wire 1 y A $end
$var wire 1 t B $end
$var wire 1 q Y $end
$upscope $end
$scope module _094_ $end
$var wire 1 H" A $end
$var wire 1 w B $end
$var wire 1 p Y $end
$upscope $end
$scope module _095_ $end
$var wire 1 x A $end
$var wire 1 I" B $end
$var wire 1 o Y $end
$upscope $end
$scope module _096_ $end
$var wire 1 q A $end
$var wire 1 o B $end
$var wire 1 n Y $end
$upscope $end
$scope module _097_ $end
$var wire 1 r A $end
$var wire 1 p B $end
$var wire 1 m Y $end
$upscope $end
$scope module _098_ $end
$var wire 1 J" A $end
$var wire 1 n B $end
$var wire 1 l Y $end
$upscope $end
$scope module _099_ $end
$var wire 1 K" A $end
$var wire 1 m B $end
$var wire 1 k Y $end
$upscope $end
$scope module _100_ $end
$var wire 1 l A $end
$var wire 1 k B $end
$var wire 1 L" Y $end
$upscope $end
$scope module _101_ $end
$var wire 1 M" A $end
$var wire 1 n B $end
$var wire 1 j Y $end
$upscope $end
$scope module _102_ $end
$var wire 1 N" A $end
$var wire 1 m B $end
$var wire 1 i Y $end
$upscope $end
$scope module _103_ $end
$var wire 1 j A $end
$var wire 1 i B $end
$var wire 1 O" Y $end
$upscope $end
$scope module _104_ $end
$var wire 1 P" A $end
$var wire 1 n B $end
$var wire 1 h Y $end
$upscope $end
$scope module _105_ $end
$var wire 1 Q" A $end
$var wire 1 m B $end
$var wire 1 g Y $end
$upscope $end
$scope module _106_ $end
$var wire 1 h A $end
$var wire 1 g B $end
$var wire 1 R" Y $end
$upscope $end
$scope module _107_ $end
$var wire 1 S" A $end
$var wire 1 n B $end
$var wire 1 f Y $end
$upscope $end
$scope module _108_ $end
$var wire 1 T" A $end
$var wire 1 m B $end
$var wire 1 e Y $end
$upscope $end
$scope module _109_ $end
$var wire 1 f A $end
$var wire 1 e B $end
$var wire 1 U" Y $end
$upscope $end
$scope module _110_ $end
$var wire 1 V" A $end
$var wire 1 n B $end
$var wire 1 d Y $end
$upscope $end
$scope module _111_ $end
$var wire 1 W" A $end
$var wire 1 m B $end
$var wire 1 c Y $end
$upscope $end
$scope module _112_ $end
$var wire 1 d A $end
$var wire 1 c B $end
$var wire 1 X" Y $end
$upscope $end
$scope module _113_ $end
$var wire 1 Y" A $end
$var wire 1 n B $end
$var wire 1 b Y $end
$upscope $end
$scope module _114_ $end
$var wire 1 Z" A $end
$var wire 1 m B $end
$var wire 1 a Y $end
$upscope $end
$scope module _115_ $end
$var wire 1 b A $end
$var wire 1 a B $end
$var wire 1 [" Y $end
$upscope $end
$scope module _116_ $end
$var wire 1 \" A $end
$var wire 1 ]" B $end
$var wire 1 ` Y $end
$upscope $end
$scope module _117_ $end
$var wire 1 ` A $end
$var wire 1 _ Y $end
$upscope $end
$scope module _118_ $end
$var wire 1 ^" A $end
$var wire 1 t B $end
$var wire 1 ^ Y $end
$upscope $end
$scope module _119_ $end
$var wire 1 ^ A $end
$var wire 1 ] Y $end
$upscope $end
$scope module _120_ $end
$var wire 1 _ A $end
$var wire 1 ^ B $end
$var wire 1 \ Y $end
$upscope $end
$scope module _121_ $end
$var wire 1 ` A $end
$var wire 1 ] B $end
$var wire 1 [ Y $end
$upscope $end
$scope module _122_ $end
$var wire 1 _" A $end
$var wire 1 y B $end
$var wire 1 Z Y $end
$upscope $end
$scope module _123_ $end
$var wire 1 z A $end
$var wire 1 ` B $end
$var wire 1 Y Y $end
$upscope $end
$scope module _124_ $end
$var wire 1 _ A $end
$var wire 1 Z B $end
$var wire 1 X Y $end
$upscope $end
$scope module _125_ $end
$var wire 1 Z A $end
$var wire 1 Y B $end
$var wire 1 W Y $end
$upscope $end
$scope module _126_ $end
$var wire 1 z A $end
$var wire 1 X B $end
$var wire 1 V Y $end
$upscope $end
$scope module _127_ $end
$var wire 1 n A $end
$var wire 1 W B $end
$var wire 1 U Y $end
$upscope $end
$scope module _128_ $end
$var wire 1 m A $end
$var wire 1 V B $end
$var wire 1 T Y $end
$upscope $end
$scope module _129_ $end
$var wire 1 x A $end
$var wire 1 `" B $end
$var wire 1 S Y $end
$upscope $end
$scope module _130_ $end
$var wire 1 a" A $end
$var wire 1 w B $end
$var wire 1 R Y $end
$upscope $end
$scope module _131_ $end
$var wire 1 q A $end
$var wire 1 R B $end
$var wire 1 Q Y $end
$upscope $end
$scope module _132_ $end
$var wire 1 r A $end
$var wire 1 S B $end
$var wire 1 P Y $end
$upscope $end
$scope module _133_ $end
$var wire 1 b" A $end
$var wire 1 y B $end
$var wire 1 O Y $end
$upscope $end
$scope module _134_ $end
$var wire 1 { A $end
$var wire 1 ` B $end
$var wire 1 N Y $end
$upscope $end
$scope module _135_ $end
$var wire 1 _ A $end
$var wire 1 O B $end
$var wire 1 M Y $end
$upscope $end
$scope module _136_ $end
$var wire 1 O A $end
$var wire 1 N B $end
$var wire 1 L Y $end
$upscope $end
$scope module _137_ $end
$var wire 1 { A $end
$var wire 1 M B $end
$var wire 1 K Y $end
$upscope $end
$scope module _138_ $end
$var wire 1 Q A $end
$var wire 1 L B $end
$var wire 1 9" Y $end
$upscope $end
$scope module _139_ $end
$var wire 1 P A $end
$var wire 1 K B $end
$var wire 1 8" Y $end
$upscope $end
$scope module _140_ $end
$var wire 1 T A $end
$var wire 1 8" B $end
$var wire 1 7" Y $end
$upscope $end
$scope module _141_ $end
$var wire 1 U A $end
$var wire 1 9" B $end
$var wire 1 6" Y $end
$upscope $end
$scope module _142_ $end
$var wire 1 \ A $end
$var wire 1 6" B $end
$var wire 1 5" Y $end
$upscope $end
$scope module _143_ $end
$var wire 1 v A $end
$var wire 1 Q B $end
$var wire 1 4" Y $end
$upscope $end
$scope module _144_ $end
$var wire 1 u A $end
$var wire 1 5" B $end
$var wire 1 3" Y $end
$upscope $end
$scope module _145_ $end
$var wire 1 4" A $end
$var wire 1 3" B $end
$var wire 1 c" Y $end
$upscope $end
$scope module _146_ $end
$var wire 1 1 A $end
$var wire 1 6" B $end
$var wire 1 2" Y $end
$upscope $end
$scope module _147_ $end
$var wire 1 u A $end
$var wire 1 2" B $end
$var wire 1 d" Y $end
$upscope $end
$scope module _148_ $end
$var wire 1 e" A $end
$var wire 1 f" B $end
$var wire 1 1" Y $end
$upscope $end
$scope module _149_ $end
$var wire 1 g" A $end
$var wire 1 h" B $end
$var wire 1 0" Y $end
$upscope $end
$scope module _150_ $end
$var wire 1 1" A $end
$var wire 1 0" B $end
$var wire 1 /" Y $end
$upscope $end
$scope module _151_ $end
$var wire 1 /" A $end
$var wire 1 ." Y $end
$upscope $end
$scope module _152_ $end
$var wire 1 m A $end
$var wire 1 /" B $end
$var wire 1 -" Y $end
$upscope $end
$scope module _153_ $end
$var wire 1 v A $end
$var wire 1 / B $end
$var wire 1 ," Y $end
$upscope $end
$scope module _154_ $end
$var wire 1 ," A $end
$var wire 1 +" Y $end
$upscope $end
$scope module _155_ $end
$var wire 1 -" A $end
$var wire 1 +" B $end
$var wire 1 *" Y $end
$upscope $end
$scope module _156_ $end
$var wire 1 U A $end
$var wire 1 *" B $end
$var wire 1 i" Y $end
$upscope $end
$scope module _157_ $end
$var wire 1 V A $end
$var wire 1 ." B $end
$var wire 1 )" Y $end
$upscope $end
$scope module _158_ $end
$var wire 1 j" A $end
$var wire 1 k" B $end
$var wire 1 (" Y $end
$upscope $end
$scope module _159_ $end
$var wire 1 l" A $end
$var wire 1 m" B $end
$var wire 1 '" Y $end
$upscope $end
$scope module _160_ $end
$var wire 1 (" A $end
$var wire 1 '" B $end
$var wire 1 &" Y $end
$upscope $end
$scope module _161_ $end
$var wire 1 K A $end
$var wire 1 &" B $end
$var wire 1 %" Y $end
$upscope $end
$scope module _162_ $end
$var wire 1 )" A $end
$var wire 1 %" B $end
$var wire 1 $" Y $end
$upscope $end
$scope module _163_ $end
$var wire 1 ," A $end
$var wire 1 $" B $end
$var wire 1 n" Y $end
$upscope $end
$scope module _164_ $end
$var wire 1 / A $end
$var wire 1 \ B $end
$var wire 1 #" Y $end
$upscope $end
$scope module _165_ $end
$var wire 1 K A $end
$var wire 1 ," B $end
$var wire 1 "" Y $end
$upscope $end
$scope module _166_ $end
$var wire 1 &" A $end
$var wire 1 "" B $end
$var wire 1 !" Y $end
$upscope $end
$scope module _167_ $end
$var wire 1 #" A $end
$var wire 1 !" B $end
$var wire 1 o" Y $end
$upscope $end
$scope module _168_ $end
$var wire 1 5" B $end
$var wire 1 ~ Y $end
$var wire 1 2 A $end
$upscope $end
$scope module _169_ $end
$var wire 1 V A $end
$var wire 1 ~ B $end
$var wire 1 =" Y $end
$upscope $end
$scope module _170_ $end
$var wire 1 ( A $end
$var wire 1 5" B $end
$var wire 1 } Y $end
$upscope $end
$scope module _171_ $end
$var wire 1 K A $end
$var wire 1 } B $end
$var wire 1 ?" Y $end
$upscope $end
$scope module _172_ $end
$var wire 1 7" B $end
$var wire 1 | Y $end
$var wire 1 5 A $end
$upscope $end
$scope module _173_ $end
$var wire 1 [ A $end
$var wire 1 | B $end
$var wire 1 >" Y $end
$upscope $end
$scope module _174_ $end
$var wire 1 7 C $end
$var wire 1 >" D $end
$var reg 1 5 Q $end
$upscope $end
$scope module _175_ $end
$var wire 1 7 C $end
$var wire 1 ?" D $end
$var reg 1 p" Q $end
$upscope $end
$scope module _176_ $end
$var wire 1 7 C $end
$var wire 1 =" D $end
$var reg 1 2 Q $end
$upscope $end
$scope module _177_ $end
$var wire 1 7 C $end
$var wire 1 q" D $end
$var reg 1 r" Q $end
$upscope $end
$scope module _178_ $end
$var wire 1 7 C $end
$var wire 1 s" D $end
$var reg 1 t" Q $end
$upscope $end
$scope module _179_ $end
$var wire 1 7 C $end
$var wire 1 u" D $end
$var reg 1 v" Q $end
$upscope $end
$scope module _180_ $end
$var wire 1 7 C $end
$var wire 1 w" D $end
$var reg 1 x" Q $end
$upscope $end
$scope module _181_ $end
$var wire 1 7 C $end
$var wire 1 y" D $end
$var reg 1 z" Q $end
$upscope $end
$scope module _182_ $end
$var wire 1 7 C $end
$var wire 1 {" D $end
$var reg 1 |" Q $end
$upscope $end
$scope module _183_ $end
$var wire 1 7 C $end
$var wire 1 }" D $end
$var reg 1 ~" Q $end
$upscope $end
$scope module _184_ $end
$var wire 1 7 C $end
$var wire 1 !# D $end
$var reg 1 "# Q $end
$upscope $end
$scope module _185_ $end
$var wire 1 7 C $end
$var wire 1 ## D $end
$var reg 1 $# Q $end
$upscope $end
$scope module _186_ $end
$var wire 1 7 C $end
$var wire 1 %# D $end
$var reg 1 &# Q $end
$upscope $end
$scope module _187_ $end
$var wire 1 7 C $end
$var wire 1 '# D $end
$var reg 1 (# Q $end
$upscope $end
$upscope $end
$upscope $end
$enddefinitions $end
#0
$dumpvars
x(#
0'#
x&#
0%#
x$#
0##
x"#
0!#
x~"
1}"
x|"
x{"
xz"
xy"
xx"
xw"
xv"
xu"
xt"
xs"
xr"
xq"
xp"
0o"
0n"
0m"
0l"
0k"
0j"
0i"
0h"
0g"
0f"
0e"
0d"
1c"
xb"
xa"
x`"
x_"
x^"
x]"
x\"
x["
xZ"
0Y"
xX"
xW"
1V"
xU"
xT"
1S"
xR"
xQ"
1P"
xO"
xN"
1M"
xL"
xK"
0J"
xI"
xH"
xG"
xF"
xE"
xD"
xC"
xB"
xA"
x@"
x?"
x>"
x="
b1 <"
bx ;"
bx :"
x9"
x8"
x7"
x6"
x5"
x4"
03"
12"
11"
10"
0/"
1."
1-"
1,"
0+"
1*"
0)"
1("
1'"
0&"
x%"
x$"
1#"
0""
1!"
x~
x}
x|
x{
xz
xy
xx
xw
1v
1u
xt
xs
xr
xq
xp
xo
xn
xm
1l
xk
xj
xi
xh
xg
xf
xe
xd
xc
1b
xa
x`
x_
x^
x]
x\
x[
xZ
xY
xX
xW
xV
xU
xT
xS
xR
xQ
xP
xO
xN
xM
xL
xK
bx J
bx I
bx H
b11 G
b110 F
b0 E
b0 D
b11 C
b110 B
b0 A
b0 @
bx ?
bx >
bx =
x<
b0 ;
b0 :
b110 9
b11 8
07
x6
x5
b0 4
x3
x2
01
b0 0
0/
b110 .
b11 -
x,
x+
x*
x)
x(
x'
z&
z%
z$
z#
z"
z!
$end
#50
0="
0?"
0>"
1~
1}
1|
05"
07"
1$"
16"
0T
18"
0%"
09"
04"
0P
1j
1h
1f
1d
1V
1U
1K
1Q
1r
1m
1[
1Y
1N
0n
0X
0W
0M
0L
0q
0\
1S
1_
0s
0]
0R
0p
0`
1o
1Z
1O
1t
1^
0x
1w
1{
1z
1y
1a"
1\"
1H"
1C"
0`"
0]"
0I"
0D"
0_"
0E"
0@"
0b"
0F"
0A"
0^"
0G"
0B"
b1 =
1~"
0"#
0$#
0&#
b1 J
0(#
17
#100
07
#150
0}"
1!#
0c"
1*"
b10 <"
1d"
14"
13"
0+"
02"
1,"
0v
0u
11
1/
02
0(
0p"
05
03
0<
06
17
#200
07
#250
1##
0w"
1y"
1{"
1q"
1s"
0u"
1i"
0L"
1O"
b110 ;"
1R"
1U"
1X"
b11 :"
0["
0j
0h
0f
0d
0U
19"
1k
1i
1g
1e
1c
1a
1T
08"
1n
0}"
0*"
0Q
0m
1P
0c"
0!#
0o
1+"
b100 <"
0d"
1R
1p
0S
14"
0,"
1x
0w
12"
0a"
0\"
0H"
0C"
1`"
1]"
1I"
1D"
1v
b10 =
0~"
b10 J
1"#
01
17
#300
07
#350
0}"
0c"
13"
05"
1##
07"
1="
16"
b100 <"
1i"
0i
0g
0e
0c
1T
0V
1W
1j
1h
1f
1d
0U
0r
1m
1X
1q
0Y
0n
1s
0_
0p
0Z
0t
1`
1o
0{
1w
1_"
1E"
1@"
0`"
0]"
0I"
0D"
1Q"
1N"
0K"
0)
0Z"
1W"
1T"
1+
0*
1,
1$#
b100 J
0"#
1|"
1z"
b110 I
0x"
0v"
1t"
b11 H
1r"
b100 =
b110 >
b11 ?
17
#400
07
#450
13
12
17
#500
07
#550
17
#600
07
#650
1%#
1n"
0##
b1000 <"
0i"
0$"
1*"
1)"
0-"
0."
1/"
01"
1e"
b1000 0
b1000 :
b1000 A
b1000 E
17
#700
07
#750
1'#
1o"
0!"
0%#
b10000 <"
0n"
18"
1""
1?"
07"
1$"
0K
09"
1U
0T
0)"
0="
1&"
1M
1L
0X
0W
1Y
1V
0N
0("
0O
1Z
0z
1{
1k"
1b"
1F"
1A"
0_"
0E"
0@"
b100 4
b100 ;
b100 @
b100 D
1&#
b1000 J
0$#
b1000 =
17
#800
07
#850
17"
1!"
1>"
08"
0""
0?"
06"
0#"
0[
1K
19"
1\
1]
0M
0L
0^
0s
0Y
1O
1t
1z
0y
0b"
0F"
0A"
1^"
1G"
1B"
b10000 =
03
1<
1(
1p"
02
0&#
b10000 J
1(#
17
#900
07
#950
0|
0p"
15
0(
0<
16
17
#1000
07
#1050
17
#1100
07
#1150
17
#1200
07
#1250
17
